-------------------------------------------------------------------------------
Test set: com.lip6.dar.DateUtilTest
-------------------------------------------------------------------------------
Tests run: 2, Failures: 0, Errors: 0, Skipped: 0, Time elapsed: 0.672 sec
