/home/congnt/dev-lapcode-projet/dar-app/src/test/java/com/lip6/dar/NavitiaAPITest.java
/home/congnt/dev-lapcode-projet/dar-app/src/test/java/com/lip6/dar/AppTest.java
/home/congnt/dev-lapcode-projet/dar-app/src/test/java/com/lip6/dar/StringToDateDemo.java
/home/congnt/dev-lapcode-projet/dar-app/src/test/java/com/lip6/dar/DateUtilTest.java
